%YAML 1.1
%TAG !u! tag:unity3d.com,2011:
--- !u!1045 &1
EditorBuildSettings:
  m_ObjectHideFlags: 0
  serializedVersion: 2
  m_Scenes:
  - enabled: 0
    path: 
    guid: 00000000000000000000000000000000
  - enabled: 0
    path: Assets/PianoRoll.unity
    guid: fe4a47f2976d54e768b96989553783a4
  - enabled: 0
    path: Assets/WatchAndLearn.unity
    guid: 416cf4d24f10d4ae5946e8eff945df52
  - enabled: 1
    path: Assets/FiveLessonBuild.unity
    guid: 165055e285e214be2b5a7d21d073052e
  m_configObjects:
    com.unity.input.settings: {fileID: 11400000, guid: d8bfa9a5967674d758201b5926acc836,
      type: 2}
